%YAML 1.1
%TAG !u! tag:unity3d.com,2011:
--- !u!74 &7400000
AnimationClip:
  m_ObjectHideFlags: 0
  m_CorrespondingSourceObject: {fileID: 0}
  m_PrefabInternal: {fileID: 0}
  m_Name: SD_eff_Attack_01_G_
  serializedVersion: 6
  m_Legacy: 0
  m_Compressed: 0
  m_UseHighQualityCurve: 1
  m_RotationCurves: []
  m_CompressedRotationCurves: []
  m_EulerCurves: []
  m_PositionCurves: []
  m_ScaleCurves: []
  m_FloatCurves: []
  m_PPtrCurves:
  - curve:
    - time: 0.125
      value: {fileID: 21300064, guid: c55d6dd5448b5dd4cbbfdc1a0b7cec8e, type: 3}
    - time: 0.1875
      value: {fileID: 21300066, guid: c55d6dd5448b5dd4cbbfdc1a0b7cec8e, type: 3}
    - time: 0.25
      value: {fileID: 21300068, guid: c55d6dd5448b5dd4cbbfdc1a0b7cec8e, type: 3}
    - time: 0.3125
      value: {fileID: 21300070, guid: c55d6dd5448b5dd4cbbfdc1a0b7cec8e, type: 3}
    - time: 0.375
      value: {fileID: 21300072, guid: c55d6dd5448b5dd4cbbfdc1a0b7cec8e, type: 3}
    - time: 0.4375
      value: {fileID: 21300074, guid: c55d6dd5448b5dd4cbbfdc1a0b7cec8e, type: 3}
    - time: 0.5
      value: {fileID: 21300076, guid: c55d6dd5448b5dd4cbbfdc1a0b7cec8e, type: 3}
    - time: 0.5625
      value: {fileID: 21300078, guid: c55d6dd5448b5dd4cbbfdc1a0b7cec8e, type: 3}
    - time: 0.625
      value: {fileID: 21300080, guid: c55d6dd5448b5dd4cbbfdc1a0b7cec8e, type: 3}
    - time: 0.6875
      value: {fileID: 21300082, guid: c55d6dd5448b5dd4cbbfdc1a0b7cec8e, type: 3}
    - time: 0.75
      value: {fileID: 21300084, guid: c55d6dd5448b5dd4cbbfdc1a0b7cec8e, type: 3}
    - time: 0.8125
      value: {fileID: 21300086, guid: c55d6dd5448b5dd4cbbfdc1a0b7cec8e, type: 3}
    - time: 0.875
      value: {fileID: 21300088, guid: c55d6dd5448b5dd4cbbfdc1a0b7cec8e, type: 3}
    - time: 0.9375
      value: {fileID: 21300090, guid: c55d6dd5448b5dd4cbbfdc1a0b7cec8e, type: 3}
    - time: 1
      value: {fileID: 21300092, guid: c55d6dd5448b5dd4cbbfdc1a0b7cec8e, type: 3}
    - time: 1.0625
      value: {fileID: 21300094, guid: c55d6dd5448b5dd4cbbfdc1a0b7cec8e, type: 3}
    attribute: m_Sprite
    path: 
    classID: 212
    script: {fileID: 0}
  m_SampleRate: 16
  m_WrapMode: 0
  m_Bounds:
    m_Center: {x: 0, y: 0, z: 0}
    m_Extent: {x: 0, y: 0, z: 0}
  m_ClipBindingConstant:
    genericBindings:
    - serializedVersion: 2
      path: 0
      attribute: 0
      script: {fileID: 0}
      typeID: 212
      customType: 23
      isPPtrCurve: 1
    pptrCurveMapping:
    - {fileID: 21300064, guid: c55d6dd5448b5dd4cbbfdc1a0b7cec8e, type: 3}
    - {fileID: 21300066, guid: c55d6dd5448b5dd4cbbfdc1a0b7cec8e, type: 3}
    - {fileID: 21300068, guid: c55d6dd5448b5dd4cbbfdc1a0b7cec8e, type: 3}
    - {fileID: 21300070, guid: c55d6dd5448b5dd4cbbfdc1a0b7cec8e, type: 3}
    - {fileID: 21300072, guid: c55d6dd5448b5dd4cbbfdc1a0b7cec8e, type: 3}
    - {fileID: 21300074, guid: c55d6dd5448b5dd4cbbfdc1a0b7cec8e, type: 3}
    - {fileID: 21300076, guid: c55d6dd5448b5dd4cbbfdc1a0b7cec8e, type: 3}
    - {fileID: 21300078, guid: c55d6dd5448b5dd4cbbfdc1a0b7cec8e, type: 3}
    - {fileID: 21300080, guid: c55d6dd5448b5dd4cbbfdc1a0b7cec8e, type: 3}
    - {fileID: 21300082, guid: c55d6dd5448b5dd4cbbfdc1a0b7cec8e, type: 3}
    - {fileID: 21300084, guid: c55d6dd5448b5dd4cbbfdc1a0b7cec8e, type: 3}
    - {fileID: 21300086, guid: c55d6dd5448b5dd4cbbfdc1a0b7cec8e, type: 3}
    - {fileID: 21300088, guid: c55d6dd5448b5dd4cbbfdc1a0b7cec8e, type: 3}
    - {fileID: 21300090, guid: c55d6dd5448b5dd4cbbfdc1a0b7cec8e, type: 3}
    - {fileID: 21300092, guid: c55d6dd5448b5dd4cbbfdc1a0b7cec8e, type: 3}
    - {fileID: 21300094, guid: c55d6dd5448b5dd4cbbfdc1a0b7cec8e, type: 3}
  m_AnimationClipSettings:
    serializedVersion: 2
    m_AdditiveReferencePoseClip: {fileID: 0}
    m_AdditiveReferencePoseTime: 0
    m_StartTime: 0
    m_StopTime: 1.125
    m_OrientationOffsetY: 0
    m_Level: 0
    m_CycleOffset: 0
    m_HasAdditiveReferencePose: 0
    m_LoopTime: 0
    m_LoopBlend: 0
    m_LoopBlendOrientation: 0
    m_LoopBlendPositionY: 0
    m_LoopBlendPositionXZ: 0
    m_KeepOriginalOrientation: 0
    m_KeepOriginalPositionY: 1
    m_KeepOriginalPositionXZ: 0
    m_HeightFromFeet: 0
    m_Mirror: 0
  m_EditorCurves: []
  m_EulerEditorCurves: []
  m_HasGenericRootTransform: 0
  m_HasMotionFloatCurves: 0
  m_GenerateMotionCurves: 0
  m_Events: []
